mo4metal.github.io - test
…
Bar graph: Mean imdb ratings by director

library(dplyr)

best_director <- community_data %>%
  group_by(directed_by) %>%
  summarise(mean_imdb_rating = mean(imdb_rating), 
            count = n()) %>%
  arrange(desc(mean_imdb_rating))

print(best_director)

# A tibble: 26 × 3
   directed_by       mean_imdb_rating count
   <chr>                        <dbl> <int>
 1 Jeff Melman                   9.8      1
 2 Anthony Hemingway             9.3      1
 3 Richard Ayoade                9        1
 4 Justin Lin                    8.8      3
 5 Adam Davidson                 8.72     8
 6 Duke Johnson                  8.7      1
 7 Joe Russo                     8.52    20
 8 Rob Schrab                    8.32    10
 9 Tristram Shapeero             8.23    24
10 Dan Eckman                    8.2      1
# ℹ 16 more rows
…
